examples/vcd-parser/samsung-tv.vcd
$timescale 25 us $end
$scope module top $end
$var wire 1 ! ir $end
$upscope $end
$enddefinitions $end
$dumpvars
0!
$end
#0
1!
#181
0!
#361
1!
#384
0!
#450
1!
#473
0!
#540
1!
#563
0!
#630
1!
#653
0!
#675
1!
#698
0!
#719
1!
#743
0!
#764
1!
#787
0!
#809
1!
#832
0!
#854
1!
#877
0!
#944
1!
#967
0!
#1034
1!
#1057
0!
#1123
1!
#1146
0!
#1168
1!
#1191
0!
#1213
1!
#1236
0!
#1258
1!
#1281
0!
#1303
1!
#1326
0!
#1348
1!
#1371
0!
#1392
1!
#1416
0!
#1437
1!
#1460
0!
#1527
1!
#1550
0!
#1572
1!
#1595
0!
#1617
1!
#1640
0!
#1662
1!
#1685
0!
#1706
1!
#1729
0!
#1751
1!
#1774
0!
#1841
1!
#1864
0!
#1931
1!
#1954
0!
#1976
1!
#1998
0!
#2065
1!
#2088
0!
#2155
1!
#2178
0!
#2245
1!
#2268
0!
#2335
1!
#2357
0!
#2424
1!
#2447
0!
#4447
1!
#4629
0!
#4808
1!
#4832
0!
#4897
1!
#4922
0!
#4987
1!
#5011
0!
#5077
1!
#5101
0!
#5122
1!
#5146
0!
#5167
1!
#5191
0!
#5212
1!
#5236
0!
#5256
1!
#5281
0!
#5301
1!
#5326
0!
#5391
1!
#5415
0!
#5481
1!
#5505
0!
#5570
1!
#5595
0!
#5615
1!
#5640
0!
#5660
1!
#5685
0!
#5705
1!
#5729
0!
#5750
1!
#5774
0!
#5795
1!
#5819
0!
#5885
1!
#5909
0!
#5929
1!
#5955
0!
#6019
1!
#6043
0!
#6064
1!
#6088
0!
#6109
1!
#6133
0!
#6154
1!
#6178
0!
#6199
1!
#6223
0!
#6244
1!
#6268
0!
#6288
1!
#6313
0!
#6378
1!
#6402
0!
#6423
1!
#6447
0!
#6513
1!
#6537
0!
#6602
1!
#6627
0!
#6692
1!
#6716
0!
#6782
1!
#6806
0!
#6872
1!
#6896
0!
#8896
1!
#9079
0!
#9258
1!
#9282
0!
#9347
1!
#9372
0!
#9437
1!
#9461
0!
#9527
1!
#9551
0!
#9572
1!
#9596
0!
#9617
1!
#9641
0!
#9661
1!
#9686
0!
#9706
1!
#9731
0!
#9751
1!
#9775
0!
#9841
1!
#9865
0!
#9931
1!
#9955
0!
#10020
1!
#10045
0!
#10065
1!
#10090
0!
#10110
1!
#10134
0!
#10155
1!
#10179
0!
#10200
1!
#10224
0!
#10245
1!
#10269
0!
#10290
1!
#10314
0!
#10379
1!
#10404
0!
#10469
1!
#10494
0!
#10514
1!
#10538
0!
#10559
1!
#10583
0!
#10604
1!
#10628
0!
#10649
1!
#10673
0!
#10694
1!
#10718
0!
#10783
1!
#10807
0!
#10828
1!
#10852
0!
#10873
1!
#10897
0!
#10963
1!
#10987
0!
#11052
1!
#11077
0!
#11142
1!
#11166
0!
#11232
1!
#11256
0!
#11322
1!
#11346
0!
#13346
1!
#13528
0!
#13707
1!
#13731
0!
#13796
1!
#13821
0!
#13886
1!
#13910
0!
#13976
1!
#14000
0!
#14021
1!
#14045
0!
#14066
1!
#14090
0!
#14111
1!
#14135
0!
#14155
1!
#14180
0!
#14200
1!
#14225
0!
#14290
1!
#14314
0!
#14380
1!
#14404
0!
#14470
1!
#14494
0!
#14514
1!
#14539
0!
#14559
1!
#14583
0!
#14604
1!
#14628
0!
#14649
1!
#14673
0!
#14694
1!
#14718
0!
#14739
1!
#14763
0!
#14829
1!
#14853
0!
#14918
1!
#14942
0!
#14963
1!
#14987
0!
#15008
1!
#15032
0!
#15053
1!
#15077
0!
#15098
1!
#15122
0!
#15143
1!
#15167
0!
#15232
1!
#15256
0!
#15277
1!
#15301
0!
#15322
1!
#15346
0!
#15412
1!
#15436
0!
#15502
1!
#15526
0!
#15591
1!
#15615
0!
#15681
1!
#15705
0!
#15771
1!
#15795
0!
#17795
1!
#17976
0!
#18156
1!
#18179
0!
#18246
1!
#18269
0!
#18336
1!
#18359
0!
#18425
1!
#18448
0!
#18470
1!
#18493
0!
#18515
1!
#18538
0!
#18560
1!
#18583
0!
#18605
1!
#18628
0!
#18650
1!
#18673
0!
#18740
1!
#18763
0!
#18829
1!
#18852
0!
#18919
1!
#18942
0!
#18964
1!
#18987
0!
#19009
1!
#19032
0!
#19054
1!
#19077
0!
#19099
1!
#19122
0!
#19143
1!
#19166
0!
#19188
1!
#19211
0!
#19233
1!
#19256
0!
#19278
1!
#19301
0!
#19368
1!
#19391
0!
#19413
1!
#19436
0!
#19458
1!
#19481
0!
#19502
1!
#19525
0!
#19547
1!
#19570
0!
#19637
1!
#19660
0!
#19727
1!
#19750
0!
#19817
1!
#19840
0!
#19861
1!
#19884
0!
#19951
1!
#19974
0!
#20041
1!
#20064
0!
#20131
1!
#20154
0!
#20220
1!
#20243
0!
#22243
1!
#22425
0!
#22604
1!
#22627
0!
#22694
1!
#22717
0!
#22784
1!
#22807
0!
#22874
1!
#22897
0!
#22918
1!
#22941
0!
#22963
1!
#22986
0!
#23008
1!
#23031
0!
#23053
1!
#23076
0!
#23098
1!
#23121
0!
#23188
1!
#23211
0!
#23277
1!
#23300
0!
#23367
1!
#23390
0!
#23412
1!
#23435
0!
#23457
1!
#23480
0!
#23502
1!
#23525
0!
#23547
1!
#23570
0!
#23591
1!
#23615
0!
#23636
1!
#23659
0!
#23681
1!
#23704
0!
#23726
1!
#23749
0!
#23816
1!
#23839
0!
#23861
1!
#23884
0!
#23906
1!
#23929
0!
#23950
1!
#23974
0!
#23995
1!
#24018
0!
#24085
1!
#24108
0!
#24175
1!
#24198
0!
#24265
1!
#24288
0!
#24309
1!
#24333
0!
#24399
1!
#24422
0!
#24489
1!
#24512
0!
#24579
1!
#24602
0!
#24668
1!
#24692
0!
#26692
1!
#26873
0!
#27053
1!
#27076
0!
#27143
1!
#27166
0!
#27233
1!
#27256
0!
#27322
1!
#27345
0!
#27367
1!
#27390
0!
#27412
1!
#27435
0!
#27457
1!
#27480
0!
#27502
1!
#27525
0!
#27547
1!
#27570
0!
#27636
1!
#27659
0!
#27726
1!
#27749
0!
#27816
1!
#27839
0!
#27861
1!
#27884
0!
#27906
1!
#27929
0!
#27951
1!
#27974
0!
#27995
1!
#28018
0!
#28040
1!
#28063
0!
#28130
1!
#28153
0!
#28175
1!
#28198
0!
#28220
1!
#28243
0!
#28310
1!
#28333
0!
#28354
1!
#28378
0!
#28399
1!
#28422
0!
#28444
1!
#28467
0!
#28489
1!
#28512
0!
#28534
1!
#28557
0!
#28624
1!
#28647
0!
#28713
1!
#28737
0!
#28758
1!
#28781
0!
#28848
1!
#28871
0!
#28938
1!
#28961
0!
#29028
1!
#29051
0!
#29117
1!
#29140
0!
#31140
1!
#31322
0!
#31501
1!
#31524
0!
#31591
1!
#31614
0!
#31681
1!
#31704
0!
#31771
1!
#31794
0!
#31815
1!
#31839
0!
#31860
1!
#31883
0!
#31905
1!
#31928
0!
#31950
1!
#31973
0!
#31995
1!
#32018
0!
#32085
1!
#32108
0!
#32174
1!
#32198
0!
#32264
1!
#32287
0!
#32309
1!
#32332
0!
#32354
1!
#32377
0!
#32399
1!
#32422
0!
#32444
1!
#32467
0!
#32488
1!
#32512
0!
#32578
1!
#32601
0!
#32623
1!
#32646
0!
#32668
1!
#32691
0!
#32758
1!
#32781
0!
#32803
1!
#32826
0!
#32847
1!
#32871
0!
#32892
1!
#32915
0!
#32937
1!
#32960
0!
#32982
1!
#33005
0!
#33072
1!
#33095
0!
#33162
1!
#33185
0!
#33206
1!
#33230
0!
#33296
1!
#33319
0!
#33386
1!
#33409
0!
#33476
1!
#33499
0!
#33565
1!
#33589
0!
#35589
1!
#35770
0!
#35950
1!
#35973
0!
#36040
1!
#36063
0!
#36130
1!
#36153
0!
#36219
1!
#36242
0!
#36264
1!
#36287
0!
#36309
1!
#36332
0!
#36354
1!
#36377
0!
#36399
1!
#36422
0!
#36444
1!
#36467
0!
#36533
1!
#36556
0!
#36623
1!
#36646
0!
#36713
1!
#36736
0!
#36758
1!
#36781
0!
#36803
1!
#36825
0!
#36848
1!
#36870
0!
#36892
1!
#36915
0!
#36937
1!
#36960
0!
#36982
1!
#37005
0!
#37072
1!
#37095
0!
#37117
1!
#37140
0!
#37206
1!
#37229
0!
#37251
1!
#37274
0!
#37296
1!
#37319
0!
#37341
1!
#37364
0!
#37386
1!
#37409
0!
#37476
1!
#37499
0!
#37521
1!
#37543
0!
#37610
1!
#37633
0!
#37655
1!
#37678
0!
#37745
1!
#37768
0!
#37835
1!
#37858
0!
#37924
1!
#37947
0!
#38014
1!
#38037
0!
#40037
1!
#40219
0!
#40398
1!
#40421
0!
#40488
1!
#40511
0!
#40578
1!
#40601
0!
#40668
1!
#40691
0!
#40712
1!
#40735
0!
#40757
1!
#40780
0!
#40802
1!
#40825
0!
#40847
1!
#40870
0!
#40892
1!
#40915
0!
#40982
1!
#41005
0!
#41071
1!
#41094
0!
#41161
1!
#41184
0!
#41206
1!
#41229
0!
#41251
1!
#41274
0!
#41296
1!
#41319
0!
#41341
1!
#41364
0!
#41386
1!
#41408
0!
#41430
1!
#41453
0!
#41520
1!
#41543
0!
#41565
1!
#41588
0!
#41655
1!
#41678
0!
#41700
1!
#41723
0!
#41745
1!
#41767
0!
#41789
1!
#41812
0!
#41834
1!
#41857
0!
#41924
1!
#41947
0!
#41969
1!
#41992
0!
#42059
1!
#42082
0!
#42104
1!
#42126
0!
#42193
1!
#42216
0!
#42283
1!
#42306
0!
#42373
1!
#42396
0!
#42463
1!
#42485
0!
